-------------------------------------------------------------------------------
Test set: edu.miami.sorting.GnomeTest
-------------------------------------------------------------------------------
Tests run: 1, Failures: 0, Errors: 0, Skipped: 0, Time elapsed: 0.083 s - in edu.miami.sorting.GnomeTest
